<svg width="25" height="24" viewBox="0 0 25 24" fill="none" xmlns="http://www.w3.org/2000/svg">
<g clip-path="url(#clip0_1018_3559)">
<rect x="0.503464" width="24" height="24" rx="5" fill="white"/>
<path d="M4.88572 0C2.45814 0 0.503464 1.95468 0.503464 4.38226V19.6178C0.503464 22.0453 2.45814 24 4.88572 24H13.1432V14.6175H10.6622V11.2395H13.1432V8.35351C13.1432 6.08611 14.6091 4.00426 17.986 4.00426C19.3532 4.00426 20.3642 4.13551 20.3642 4.13551L20.2847 7.29002C20.2847 7.29002 19.2536 7.28028 18.1285 7.28028C16.9107 7.28028 16.7155 7.84135 16.7155 8.77279V11.2395H20.3815L20.2217 14.6175H16.7155V24H20.1212C22.5488 24 24.5035 22.0454 24.5035 19.6178V4.38228C24.5035 1.9547 22.5488 2.4e-05 20.1212 2.4e-05H4.8857L4.88572 0Z" fill="#984063"/>
</g>
<defs>
<clipPath id="clip0_1018_3559">
<rect x="0.503464" width="24" height="24" rx="5" fill="white"/>
</clipPath>
</defs>
</svg>
