<svg width="25" height="24" viewBox="0 0 25 24" fill="none" xmlns="http://www.w3.org/2000/svg">
<rect x="0.503464" width="24" height="24" rx="5" fill="#984063"/>
<path d="M19.011 6.27733C18.876 6.20751 18.7446 6.13097 18.6172 6.048C18.2472 5.80331 17.9078 5.51502 17.6066 5.18933C16.8519 4.32622 16.5701 3.45067 16.467 2.83822H16.4706C16.3844 2.32889 16.4199 2 16.4261 2H12.9906V15.2827C12.9906 15.4604 12.9906 15.6373 12.9835 15.8116C12.9835 15.8329 12.9808 15.8524 12.9799 15.8764C12.9799 15.8853 12.9799 15.896 12.9772 15.9058V15.9138C12.9412 16.3902 12.7885 16.8505 12.5328 17.2542C12.277 17.6578 11.926 17.9924 11.5106 18.2284C11.0772 18.475 10.587 18.6043 10.0884 18.6036C8.48835 18.6036 7.19057 17.2987 7.19057 15.6871C7.19057 14.0747 8.48835 12.7698 10.0884 12.7698C10.3915 12.7698 10.6928 12.8178 10.9808 12.912L10.9852 9.41333C10.1106 9.30049 9.22203 9.37019 8.37567 9.61804C7.52931 9.86589 6.74353 10.2865 6.06791 10.8533C5.47578 11.3676 4.97794 11.9812 4.5968 12.6667C4.45191 12.9164 3.90435 13.9218 3.83857 15.552C3.7968 16.4764 4.07502 17.4364 4.20746 17.832V17.8409C4.29013 18.0738 4.61368 18.8702 5.13991 19.5413C5.56426 20.08 6.06564 20.5532 6.62791 20.9458V20.9369L6.63591 20.9458C8.29813 22.0747 10.1426 22.0009 10.1426 22.0009C10.4617 21.9876 11.531 22.0009 12.7452 21.4258C14.0919 20.7876 14.8581 19.8373 14.8581 19.8373C15.348 19.2694 15.7376 18.6223 16.0101 17.9236C16.3212 17.1058 16.4244 16.1262 16.4244 15.7351V8.68711C16.4661 8.712 17.0217 9.07911 17.0217 9.07911C17.0217 9.07911 17.8217 9.592 19.0688 9.92533C19.963 10.1627 21.1692 10.2133 21.1692 10.2133V6.80267C20.747 6.84889 19.8892 6.71556 19.0101 6.27822L19.011 6.27733Z" fill="white"/>
</svg>
