<svg width="56" height="47" viewBox="0 0 56 47" fill="none" xmlns="http://www.w3.org/2000/svg">
<path d="M44 5C44.2652 5 44.5196 4.89464 44.7071 4.70711C44.8946 4.51957 45 4.26522 45 4C45 3.73478 44.8946 3.48043 44.7071 3.29289C44.5196 3.10536 44.2652 3 44 3C43.7348 3 43.4804 3.10536 43.2929 3.29289C43.1054 3.48043 43 3.73478 43 4C43 4.26522 43.1054 4.51957 43.2929 4.70711C43.4804 4.89464 43.7348 5 44 5Z" fill="#004FE7" stroke="#004FE7" stroke-width="1.5" stroke-linecap="round" stroke-linejoin="round"/>
<path d="M40.111 19H47.889M48 1C48 1 49.5 2 49.5 4C49.5 6 48 7 48 7V1ZM40 1C40 1 38.5 2 38.5 4C38.5 6 40 7 40 7V1ZM39 23L40.111 19L39 23ZM49 23L47.889 19L49 23ZM46.5 14L44 5L41.5 14H46.5ZM46.5 14H41.5H46.5ZM46.5 14L47.889 19L46.5 14ZM41.5 14L40.111 19L41.5 14Z" stroke="#004FE7" stroke-width="1.5" stroke-linecap="round" stroke-linejoin="round"/>
<path d="M20.465 9.78203C20.1665 9.66242 19.8335 9.66242 19.535 9.78203L4.615 15.7495L20 21.902L35.385 15.7495L20.465 9.78203ZM37.5 17.597L21.25 24.097V43.902L37.5 37.402V17.5995V17.597ZM18.75 43.9045V24.0945L2.5 17.597V37.4045L18.75 43.9045ZM18.6075 7.45953C19.5014 7.10203 20.4986 7.10203 21.3925 7.45953L39.215 14.5895C39.4467 14.6824 39.6453 14.8425 39.7852 15.0493C39.9251 15.256 39.9999 15.4999 40 15.7495V37.4045C39.9997 37.9041 39.8497 38.3921 39.5694 38.8056C39.2891 39.2191 38.8914 39.5392 38.4275 39.7245L20.465 46.9095C20.1665 47.0291 19.8335 47.0291 19.535 46.9095L1.575 39.7245C1.11063 39.5396 0.712356 39.2197 0.431605 38.8061C0.150854 38.3926 0.000515823 37.9044 0 37.4045L0 15.7495C5.80999e-05 15.4999 0.0748594 15.256 0.214768 15.0493C0.354676 14.8425 0.553282 14.6824 0.785 14.5895L18.6075 7.45953Z" fill="#004FE7"/>
</svg>
