<svg width="50" height="44" viewBox="0 0 50 44" fill="none" xmlns="http://www.w3.org/2000/svg">
<path d="M23.9088 12.3653C24.6511 9.19821 25.3934 6.03112 26.1357 2.86404C26.8285 -0.204079 27.0264 -0.352536 29.9956 0.340265C33.5091 1.13204 36.9731 1.9733 40.4866 2.71558C41.3773 2.91352 41.9216 3.35889 42.5155 4.10118C44.4454 6.4765 45.2372 8.95079 43.8516 11.9199C43.1093 13.454 43.7526 14.3447 45.2372 14.988C46.5238 15.5324 47.662 16.3736 48.8496 17.0664C50.0868 17.7592 50.2847 18.7984 49.6414 19.9366C47.563 23.5491 45.4351 27.1615 43.3567 30.774C42.9114 31.5658 42.2186 31.8627 41.2783 31.9617C42.3175 33.8421 43.1093 35.7226 42.565 37.8999C41.8722 40.6217 40.2886 42.5516 37.5669 43.2444C34.9442 43.9372 32.4204 43.4918 30.4904 41.3639C29.7976 40.5722 29.1048 40.3742 28.1151 40.3742C23.6614 40.4237 19.2077 40.4237 14.754 40.3742C12.2302 40.3742 11.6364 39.8794 11.4384 37.3061C11.29 35.4751 11.1415 33.6937 11.0425 31.8627C10.9931 30.9225 10.7456 30.774 9.90436 31.2194C7.92493 32.2586 7.43008 32.1101 6.34139 30.1802C4.46093 26.9636 2.62996 23.7965 0.7495 20.5799C-0.438158 18.5015 -0.289701 17.9077 1.73921 16.72C3.07533 15.9283 4.41145 15.087 5.79705 14.3942C6.73728 13.9488 6.83625 13.4045 6.48985 12.4643C5.99499 11.2766 5.64859 10.0395 5.25271 8.80233C4.80733 7.46621 5.15373 6.52598 6.58882 6.08061C10.3497 4.89295 14.1107 3.60633 17.9211 2.41867C19.6036 1.87432 20.2964 2.22073 20.8407 3.90324C21.7809 6.67444 22.6717 9.49513 23.5624 12.3158C23.7109 12.3158 23.8099 12.3158 23.9088 12.3653ZM9.75591 23.0542C9.80539 21.5202 9.11259 20.2335 8.41979 18.8974C8.41979 17.5613 7.6775 16.4726 7.43008 15.186C7.3311 14.6416 7.03419 14.4932 6.53933 14.7901C4.85682 15.7798 3.12482 16.7695 1.39282 17.7593C0.65053 18.2046 0.700016 18.7985 1.0959 19.5407C3.1743 23.0542 5.20322 26.5677 7.23214 30.0812C7.57854 30.6255 7.97442 31.3183 8.71671 30.9225C9.55797 30.4771 10.9436 30.3286 10.9436 29.141C10.8941 27.1121 10.9931 24.9347 9.75591 23.0542ZM39.7443 19.4418C39.7938 20.6789 39.2494 21.9655 40.0412 23.1037C38.7546 25.0337 39.2989 27.2605 39.1504 29.3389C39.0515 30.2791 40.5855 30.6255 41.4763 31.0214C42.1196 31.3183 42.5155 30.7245 42.8124 30.1802C44.8413 26.6667 46.8702 23.1037 48.9486 19.5902C49.493 18.6995 49.295 18.1056 48.4538 17.6108C45.831 16.0767 43.1588 14.5922 40.536 13.0581C39.9422 12.7117 39.3484 12.7117 39.002 13.3055C38.1112 14.7406 37.27 16.2252 36.3792 17.7593C39.1999 18.1057 39.1999 18.1056 39.7443 19.4418ZM11.29 22.5594C11.29 22.6583 11.29 22.7078 11.29 22.8068C11.2405 22.9058 11.092 22.9553 11.092 23.0542C11.7848 27.8543 11.8838 32.7039 12.2302 37.5535C12.3292 39.0381 12.9725 39.6319 14.4571 39.5825C18.9108 39.533 23.315 39.533 27.7687 39.5825C28.8079 39.5825 29.1543 39.4835 28.8079 38.2463C27.9667 34.9308 29.3523 31.8627 32.1235 30.2791C34.0534 29.1905 36.0823 29.0915 38.2102 29.8338C38.3092 28.7451 38.3587 27.8049 38.4576 26.8646C38.5566 25.8749 38.6061 24.8357 38.7051 23.846C38.9525 23.6481 39.002 23.4006 38.7051 23.1532C38.6556 23.0542 38.6556 22.9553 38.6061 22.8563C38.6061 22.7573 38.6556 22.6583 38.6556 22.5594C38.9525 22.213 38.903 21.7676 38.903 21.3222C39.0515 18.65 39.0515 18.65 36.3792 18.65C31.8266 18.65 27.2739 18.6005 22.7212 18.65C21.583 18.65 20.9892 18.452 21.1376 17.1654C21.2366 16.2252 20.8407 15.6314 19.752 15.6314C17.2283 15.6314 14.7045 15.6314 12.1807 15.6314C11.5374 15.6314 10.8941 15.7303 10.8941 16.5221C11.0425 18.551 10.7951 20.5305 11.29 22.5594ZM21.2366 14.7901C21.5335 15.5819 22.0284 16.3242 21.9294 17.2149C21.8799 17.4623 21.9294 17.8087 22.2758 17.8087C22.4243 17.8087 22.7212 17.6108 22.7212 17.4623C22.9191 16.3242 23.6614 15.186 23.315 14.0478C22.3253 10.5838 21.1376 7.21878 20.0489 3.80427C19.8015 3.06198 19.3561 2.76507 18.6139 3.0125C14.7045 4.29912 10.7456 5.53627 6.83625 6.8229C5.84653 7.1693 5.69808 7.76313 6.04448 8.70336C6.93522 11.3756 7.82596 14.0973 8.66722 16.819C9.16208 18.3036 9.60745 19.8377 10.1023 21.3222C10.1518 21.3222 10.2013 21.2727 10.3003 21.2727C10.3003 20.4315 10.3003 19.5407 10.3003 18.6995C10.3003 17.8087 10.5477 16.918 10.1518 16.0767C10.0528 15.7303 10.0033 15.3839 10.3497 15.1365C13.9622 14.4437 17.6241 14.8396 21.2366 14.7901ZM36.7751 15.7303C36.9731 15.285 37.2205 14.8891 37.4184 14.4437C38.1112 13.6519 38.2597 12.2663 39.6453 12.1179C40.833 12.0189 41.5752 13.1571 42.7629 13.256C42.8619 12.8107 43.0103 12.4148 43.1093 11.9694C43.2578 11.2271 43.3567 10.4848 43.6042 9.79204C44.099 8.5549 43.7031 8.10953 42.4165 7.91159C40.0907 7.5157 40.0907 7.41673 40.635 5.18987C40.6845 5.04141 40.6845 4.84347 40.734 4.69501C41.1794 3.80427 40.734 3.45787 39.8927 3.30941C36.1813 2.46815 32.4699 1.62689 28.8079 0.785637C27.8677 0.587694 27.3728 0.884609 27.1749 1.77535C26.0367 6.8229 24.8491 11.8704 23.7109 16.918C23.5624 17.6108 23.7109 17.9077 24.5027 17.9077C25.6903 17.8582 26.9275 17.9077 28.2636 17.9077C27.5708 16.9675 26.2841 17.6108 25.6408 16.6211C26.4326 16.2747 27.0759 16.72 27.6697 16.819C29.9461 17.2149 32.1235 18.0562 34.4493 17.9077C35.1421 17.8582 35.7359 17.8582 35.9339 17.0664C36.1318 16.72 36.3298 16.3736 36.5277 16.0272C36.5277 15.9283 36.6762 15.8293 36.7751 15.7303ZM35.7359 30.1802C32.173 30.1307 29.3523 32.9019 29.3523 36.4154C29.3523 39.9289 32.1235 42.7496 35.637 42.7496C39.101 42.7496 41.8722 40.0278 41.9216 36.5638C42.0206 33.0503 39.2494 30.1802 35.7359 30.1802ZM43.4062 7.21878C43.0103 6.22907 42.466 5.33833 41.7237 4.49707C40.5855 6.8229 40.833 7.21878 43.4062 7.21878Z" fill="#618AFF"/>
<path d="M6.19285 4.00219C6.09388 5.14036 5.30211 5.6847 4.26291 5.6847C3.17423 5.6847 2.62988 4.89293 2.62988 3.75476C2.62988 2.5671 3.47114 1.97327 4.46085 2.02276C5.54954 2.02276 6.09388 2.86401 6.19285 4.00219ZM4.41137 4.79396C4.95571 4.84344 5.3516 4.49704 5.40108 3.9527C5.45057 3.2599 4.90623 2.9135 4.26291 2.9135C3.6196 2.86401 3.2732 3.21041 3.2732 3.85373C3.32268 4.49704 3.66908 4.74447 4.41137 4.79396Z" fill="#DAE1FF"/>
<path d="M47.365 41.2154C47.3156 41.8587 46.7712 42.6505 45.7815 42.6505C44.6928 42.6505 43.8516 42.1062 43.8516 40.7701C43.8516 39.5329 44.6433 38.9391 45.633 38.9391C46.6228 38.9886 47.4145 39.6319 47.365 41.2154ZM46.7217 40.8195C46.6723 40.1762 46.3258 39.8793 45.6825 39.8298C44.9402 39.7803 44.5938 40.2257 44.5444 40.869C44.4949 41.5618 44.9402 41.7598 45.5341 41.7598C46.2269 41.8093 46.6723 41.5618 46.7217 40.8195Z" fill="#DAE1FF"/>
<path d="M47.7604 29.4874C47.315 29.3389 46.8202 29.0915 46.8696 28.5472C46.9191 28.0523 47.315 27.6564 47.8594 27.7059C48.4532 27.7059 48.6511 28.1513 48.6016 28.6956C48.6016 29.1905 48.3047 29.4874 47.7604 29.4874Z" fill="#DAE1FF"/>
<path d="M5.74779 38.1968C5.20345 38.1473 4.95601 37.8504 4.90653 37.405C4.85704 36.8112 5.25293 36.5143 5.74779 36.4648C6.29213 36.4153 6.68802 36.8112 6.68802 37.3061C6.63853 37.8009 6.24265 38.0978 5.74779 38.1968Z" fill="#DAE1FF"/>
<path d="M38.7546 23.7965C38.6557 24.7862 38.6062 25.8254 38.5072 26.8152C38.4082 27.7554 38.3588 28.7451 38.2598 29.7843C36.1319 29.042 34.0535 29.141 32.173 30.2297C29.3524 31.8132 28.0162 34.8813 28.8575 38.1969C29.1544 39.3845 28.808 39.533 27.8183 39.533C23.3646 39.4835 18.9604 39.4835 14.5066 39.533C13.0221 39.533 12.4282 38.9886 12.2798 37.5041C11.9334 32.6545 11.8344 27.8049 11.1416 23.0048C11.1416 22.9553 11.2406 22.8563 11.3395 22.7573C20.4449 22.7573 29.5998 22.8068 38.7052 22.8068C38.7546 22.9058 38.7547 23.0048 38.8041 23.1037C38.7547 23.3512 38.7546 23.5491 38.7546 23.7965Z" fill="#FDFBFF"/>
<path d="M35.8841 17.0664C35.6862 17.9077 35.0924 17.8582 34.3996 17.9077C32.0243 18.0561 29.8469 17.2149 27.62 16.819C26.9767 16.72 26.3334 16.2746 25.5911 16.621C26.1849 17.6108 27.4716 17.0169 28.2139 17.9077C26.8777 17.9077 25.6901 17.9077 24.4529 17.9077C23.7106 17.9077 23.5127 17.6108 23.6612 16.918C24.8488 11.8704 25.987 6.82286 27.1252 1.77531C27.3231 0.884571 27.818 0.538171 28.7582 0.7856C32.4696 1.67634 36.1811 2.5176 39.843 3.30937C40.6843 3.50731 41.1296 3.80423 40.6843 4.69497C40.6348 4.84343 40.6348 4.99189 40.5853 5.18983C40.0904 7.46618 40.0904 7.51566 42.3668 7.91155C43.6534 8.10949 44.0493 8.55486 43.5544 9.792C43.307 10.4848 43.208 11.2271 43.0596 11.9694C42.9606 12.3653 42.8616 12.8106 42.7132 13.256C41.575 13.157 40.8327 12.0189 39.5956 12.1178C38.21 12.2663 38.0615 13.6024 37.3687 14.4437C33.7563 13.9488 30.2428 12.6127 26.5313 12.3653C26.7788 12.9096 27.1747 13.0086 27.5705 13.1076C29.9953 13.6519 32.4696 14.1468 34.8944 14.7901C35.5377 14.9385 36.478 14.6911 36.7254 15.6808C36.6264 15.7798 36.5275 15.8788 36.4285 16.0272C33.8552 15.4334 31.282 14.7901 28.6592 14.2457C27.8675 14.0973 26.4324 13.5034 26.3829 13.9983C26.3334 15.087 27.719 14.7901 28.5108 15.0375C30.9356 15.8293 33.5583 15.9282 35.8841 17.0664ZM41.4265 11.8209C41.0307 11.1281 40.6843 11.0291 40.3379 10.9302C36.379 10.0394 32.4201 9.14869 28.4613 8.25795C28.1644 8.20846 27.6695 7.81258 27.5211 8.35692C27.3726 9.00024 28.0159 8.90126 28.4118 9.00023C30.6387 9.54458 32.8655 10.0889 35.0924 10.5343C37.0718 11.0291 39.0512 11.6725 41.4265 11.8209ZM28.6592 2.5176C28.1644 3.11143 28.3623 3.80423 28.3623 4.44755C28.3623 4.9424 28.0654 5.6352 28.6097 5.93212C29.4015 6.328 29.2531 5.09086 29.8469 5.04137C30.1438 5.43726 29.5995 6.27852 30.3912 6.37749C30.9356 6.42698 31.0345 5.73417 31.2325 5.33829C31.4799 4.89292 31.7273 4.39806 31.9748 3.9032C32.1727 3.5568 32.1232 3.25989 31.7273 3.2104C31.3809 3.16092 31.084 3.11143 31.1335 3.65577C31.183 3.9032 31.183 4.20012 30.7871 4.2496C30.3912 3.85372 30.9851 3.11143 30.2923 2.91349C29.55 2.71555 29.7974 3.9032 29.1046 3.9032C28.9561 3.40835 29.3025 2.864 28.6592 2.5176ZM37.1708 12.3653C37.2203 12.2168 37.2203 12.0684 37.2697 11.8704C34.0532 11.1281 30.8861 10.3858 27.6695 9.64355C27.4716 9.59406 27.2241 9.64355 27.2241 9.94046C27.2241 10.3363 27.5705 10.4353 27.8675 10.5343C29.8469 10.9797 31.8263 11.4745 33.8057 11.8209C34.9439 12.0684 35.9831 12.7612 37.1708 12.3653Z" fill="#FDFBFF"/>
<path d="M10.2995 18.65C10.2995 19.4912 10.2995 20.382 10.2995 21.2232C10.25 21.2232 10.2006 21.2727 10.1016 21.2727C9.60673 19.7881 9.16136 18.2541 8.6665 16.7695C7.77576 14.0478 6.9345 11.3756 6.04376 8.65385C5.74685 7.71362 5.84582 7.07031 6.83553 6.77339C10.7449 5.48676 14.7038 4.24962 18.6131 2.96299C19.4049 2.71556 19.8503 3.01248 20.0482 3.75476C21.1369 7.16928 22.3246 10.5838 23.3143 13.9983C23.6607 15.1365 22.9184 16.2747 22.7205 17.4128C22.7205 17.5613 22.4235 17.7592 22.2751 17.7592C21.8792 17.7592 21.8792 17.4128 21.9287 17.1654C22.0277 16.2252 21.5328 15.5324 21.2359 14.7406C21.1369 14.0478 20.5431 13.8499 19.9987 13.6024C19.108 13.256 18.1678 11.9199 17.3265 13.7509C17.1286 14.1963 16.6337 13.8004 16.3368 13.6519C15.1986 13.0581 14.1099 12.4148 12.9718 11.8209C12.5264 11.5735 12.081 11.3756 11.8336 12.0684C11.4377 13.1076 10.547 13.8993 10.349 15.0375C10.0026 15.2849 10.0521 15.6313 10.1511 15.9777C10.1016 16.918 9.90365 17.8087 10.2995 18.65ZM18.3657 8.60437C17.5245 8.65385 16.8811 8.95077 16.8316 9.891C16.7822 10.8807 17.5739 11.3756 18.3657 11.4251C19.1575 11.4745 19.7018 10.9302 19.7018 9.98997C19.7018 9.00025 19.3059 8.55488 18.3657 8.60437Z" fill="#FDFBFF"/>
<path d="M11.2901 22.5593C10.7953 20.5799 10.9932 18.551 10.9932 16.5715C10.9932 15.7798 11.6365 15.6808 12.2798 15.6808C14.8036 15.6808 17.3274 15.6808 19.8512 15.6808C20.9398 15.6808 21.3357 16.2746 21.2368 17.2148C21.0883 18.5015 21.6821 18.6994 22.8203 18.6994C27.373 18.6499 31.9257 18.6994 36.4784 18.6994C39.1506 18.6994 39.1506 18.6994 39.0021 21.3716C38.9526 21.7675 39.0516 22.2624 38.7547 22.6088C29.5504 22.5098 20.445 22.5098 11.2901 22.5593Z" fill="#FDFBFF"/>
<path d="M35.7359 30.1802C39.2493 30.2296 41.9711 33.0503 41.9216 36.6133C41.8721 40.0773 39.1009 42.799 35.6369 42.799C32.1234 42.799 29.3027 39.9783 29.3522 36.4649C29.3522 32.9019 32.1729 30.1307 35.7359 30.1802ZM35.6369 34.4359C35.241 34.5349 35.142 34.7823 35.142 35.0298C35.3895 36.3659 33.707 35.6236 33.608 36.4154C33.509 37.3556 35.4389 36.5638 35.142 37.9494C35.0925 38.1969 35.241 38.4938 35.5874 38.4938C35.9338 38.5432 36.0823 38.2958 36.0823 37.9989C36.0328 37.2566 36.3792 36.9102 37.1215 36.9597C37.4184 36.9597 37.6658 36.8112 37.6658 36.5143C37.6658 36.3659 37.5174 36.1679 37.4184 36.1679C36.3792 36.2174 36.0328 35.6236 35.9833 34.7329C35.9833 34.5844 35.7359 34.4854 35.6369 34.4359Z" fill="#FDFBFF"/>
<path d="M39.7446 19.4417C39.2002 18.0561 39.2003 18.0561 36.3301 17.7592C37.2208 16.2251 38.0621 14.7406 38.9528 13.3055C39.3487 12.7116 39.893 12.7116 40.4869 13.058C43.1096 14.5921 45.7819 16.1262 48.4046 17.6107C49.2459 18.1056 49.4438 18.7489 48.8995 19.5902C46.8211 23.1037 44.8416 26.6171 42.7632 30.1801C42.4663 30.7245 42.0704 31.3183 41.4271 31.0214C40.5364 30.6255 39.0518 30.3286 39.1013 29.3389C39.2497 27.2605 38.7054 25.0336 39.992 23.1036C40.4374 22.8562 40.5858 22.3614 40.8333 21.9655C42.1694 19.7881 42.1694 19.7881 39.7446 19.4417ZM41.922 23.1531C42.6642 22.6088 43.0106 22.015 42.3178 21.1242C42.1694 21.7675 42.0209 22.4603 41.922 23.1531C41.5261 23.2026 40.9323 22.9552 40.8828 23.6975C41.4271 23.8459 41.724 23.549 41.922 23.1531ZM43.6045 20.6788C43.654 22.6088 42.7137 23.9449 41.0312 24.8851C43.3571 24.5387 44.5447 22.6583 43.6045 20.6788Z" fill="#FDFBFF"/>
<path d="M9.75557 23.0542C11.0422 24.9347 10.8937 27.112 10.9432 29.2399C10.9432 30.4276 9.55762 30.576 8.71637 31.0214C7.97408 31.4173 7.57819 30.7245 7.23179 30.1802C5.20288 26.6667 3.17396 23.1532 1.09556 19.6397C0.650187 18.9469 0.600701 18.3036 1.39247 17.8582C3.07499 16.819 4.80699 15.8788 6.53899 14.8891C7.03385 14.5921 7.33076 14.6911 7.42973 15.2849C7.67716 16.5221 8.41945 17.6603 8.41945 18.9964C7.82562 18.8479 7.47922 17.6108 6.73694 18.5015C6.14311 19.1943 6.73694 19.8376 7.23179 20.283C7.87511 20.8768 7.97408 21.5696 8.22151 22.3614C8.61739 23.6975 7.92459 24.5883 7.33076 25.578C7.08333 26.0234 6.88539 26.6667 7.47922 26.9636C8.07305 27.2605 8.41945 26.7162 8.71637 26.2708C9.01328 25.8254 9.11225 25.2811 9.11225 24.7367C9.06276 23.9944 9.31019 23.4501 9.75557 23.0542Z" fill="#FDFBFF"/>
<path d="M10.3496 15.087C10.5476 13.9488 11.4383 13.157 11.8342 12.1178C12.0816 11.425 12.527 11.623 12.9724 11.8704C14.1105 12.5137 15.1992 13.1076 16.3374 13.7014C16.6343 13.8498 17.1292 14.2457 17.3271 13.8004C18.1684 11.9694 19.1086 13.3055 19.9993 13.6519C20.4942 13.8498 21.1375 14.0478 21.2365 14.7901C17.624 14.8396 13.9621 14.4437 10.3496 15.087Z" fill="#618AFF"/>
<path d="M9.75544 23.0542C9.31007 23.4996 9.06263 23.9944 9.11212 24.6378C9.11212 25.1821 9.01315 25.7264 8.71624 26.1718C8.41932 26.6172 8.07292 27.211 7.47909 26.8646C6.88526 26.5677 7.03372 25.9244 7.33063 25.479C7.87498 24.4893 8.56778 23.5986 8.22138 22.2624C8.02344 21.4707 7.87498 20.7779 7.23166 20.184C6.73681 19.7387 6.14298 19.0953 6.73681 18.4025C7.47909 17.5613 7.87498 18.7489 8.41932 18.8974C9.06263 20.184 9.80492 21.5202 9.75544 23.0542Z" fill="#618AFF"/>
<path d="M36.7751 15.7303C36.5277 14.7406 35.5875 14.9881 34.9441 14.8396C32.5193 14.1963 30.0945 13.7014 27.6203 13.1571C27.2244 13.0581 26.8285 12.9591 26.5811 12.4148C30.2925 12.6622 33.7565 13.9489 37.4184 14.4932C37.171 14.8891 36.9731 15.285 36.7751 15.7303Z" fill="#618AFF"/>
<path d="M11.29 22.5593C20.4449 22.5593 29.5503 22.5593 38.7051 22.5593C38.7051 22.6583 38.7051 22.7573 38.6557 22.8562C29.5503 22.8562 20.3954 22.8068 11.29 22.8068C11.29 22.7078 11.29 22.6088 11.29 22.5593Z" fill="#618AFF"/>
<path d="M35.8847 17.0664C33.5589 15.9283 30.9856 15.8293 28.5608 15.087C27.769 14.8396 26.3834 15.1365 26.4329 14.0478C26.4329 13.5529 27.9175 14.0973 28.7093 14.2952C31.332 14.8396 33.9053 15.4829 36.4785 16.0767C36.2806 16.3736 36.0827 16.72 35.8847 17.0664Z" fill="#DAE1FF"/>
<path d="M39.7442 19.4418C42.169 19.7882 42.169 19.7882 40.8824 21.9655C40.6349 22.3614 40.4865 22.8563 40.0411 23.1037C39.2493 21.9655 39.7937 20.6789 39.7442 19.4418Z" fill="#618AFF"/>
<path d="M43.4065 7.21879C40.8332 7.21879 40.5858 6.8229 41.7239 4.49707C42.4662 5.33833 43.0106 6.22907 43.4065 7.21879Z" fill="#DAE1FF"/>
<path d="M10.2998 18.65C9.90395 17.8087 10.0524 16.918 10.1514 16.0272C10.5473 16.918 10.3493 17.8087 10.2998 18.65Z" fill="#618AFF"/>
<path d="M38.7549 23.7965C38.7549 23.5491 38.7549 23.3511 38.7549 23.1037C39.0518 23.3511 39.0023 23.5491 38.7549 23.7965Z" fill="#618AFF"/>
<path d="M4.41193 4.79393C3.71913 4.74445 3.32324 4.49702 3.32324 3.8537C3.32324 3.21039 3.66964 2.86399 4.31296 2.91348C4.95627 2.96296 5.45113 3.30936 5.45113 3.95268C5.35216 4.49702 4.95627 4.84342 4.41193 4.79393Z" fill="#FDFBFF"/>
<path d="M46.7216 40.8196C46.6721 41.5619 46.2268 41.8093 45.5834 41.8093C44.9896 41.8093 44.4948 41.5619 44.5937 40.9186C44.6432 40.2753 44.9896 39.8794 45.7319 39.8794C46.3257 39.8794 46.6721 40.1763 46.7216 40.8196Z" fill="#FDFBFF"/>
<path d="M41.427 11.8209C39.1012 11.6725 37.1218 10.9797 35.0928 10.5343C32.866 10.0395 30.6391 9.49511 28.4123 9.00025C28.0659 8.90128 27.3731 9.04974 27.5215 8.35694C27.67 7.8126 28.1648 8.15899 28.4618 8.25797C32.4206 9.14871 36.3795 10.0395 40.3383 10.9302C40.6847 11.0292 41.0311 11.1281 41.427 11.8209Z" fill="#618AFF"/>
<path d="M28.66 2.51764C29.3033 2.86404 28.9074 3.45787 29.1053 3.85375C29.7981 3.85375 29.5507 2.66609 30.293 2.86404C30.9858 3.06198 30.392 3.85376 30.7879 4.20016C31.1343 4.15067 31.1343 3.85375 31.1343 3.60632C31.0848 3.11147 31.4312 3.11147 31.7281 3.16096C32.1735 3.25993 32.1735 3.50735 31.9755 3.85375C31.7281 4.34861 31.5301 4.79398 31.2332 5.28884C30.9858 5.68473 30.9363 6.37753 30.392 6.32804C29.6002 6.22907 30.1445 5.38781 29.8476 4.99193C29.2538 5.04141 29.4023 6.27856 28.6105 5.88267C28.0661 5.58576 28.3631 4.89296 28.3631 4.3981C28.4125 3.80427 28.1651 3.06198 28.66 2.51764Z" fill="#618AFF"/>
<path d="M37.1712 12.3653C35.9836 12.7612 34.8949 12.0684 33.8062 11.8704C31.8268 11.4745 29.8474 11.0292 27.8679 10.5838C27.5215 10.5343 27.2246 10.3858 27.2246 9.98996C27.2246 9.69305 27.472 9.64356 27.67 9.69305C30.8866 10.4353 34.0536 11.1776 37.2702 11.9199C37.2702 12.0684 37.2207 12.2168 37.1712 12.3653Z" fill="#DAE1FF"/>
<path d="M18.3667 8.60436C19.3069 8.55487 19.7523 9.00024 19.7523 9.94047C19.7523 10.8807 19.2079 11.425 18.4161 11.3756C17.6244 11.3261 16.8326 10.8312 16.8821 9.8415C16.8821 8.95076 17.5254 8.65384 18.3667 8.60436Z" fill="#DAE1FF"/>
<path d="M35.6371 34.4359C35.7361 34.4854 35.9835 34.5844 35.9835 34.6339C36.033 35.5741 36.3794 36.1184 37.4186 36.0689C37.5175 36.0689 37.666 36.3164 37.666 36.4153C37.666 36.7123 37.4186 36.9102 37.1217 36.8607C36.3794 36.8112 36.0825 37.1576 36.0825 37.8999C36.0825 38.1968 35.934 38.4443 35.5876 38.3948C35.2907 38.3453 35.0927 38.0979 35.1422 37.8504C35.4391 36.4648 33.5092 37.2566 33.6082 36.3164C33.6577 35.5741 35.3402 36.2669 35.1422 34.9308C35.1422 34.7823 35.2907 34.5349 35.6371 34.4359Z" fill="#DAE1FF"/>
<path d="M43.6035 20.6789C44.5438 22.6583 43.3561 24.5388 41.0303 24.8852C42.7128 23.9944 43.653 22.6583 43.6035 20.6789Z" fill="#618AFF"/>
<path d="M41.8721 23.1037C42.0205 22.4604 42.1195 21.7676 42.268 21.1243C43.0102 21.9655 42.6638 22.6088 41.8721 23.1037Z" fill="#DAE1FF"/>
<path d="M41.922 23.1532C41.7241 23.5491 41.4272 23.846 40.8828 23.6976C40.9323 22.9553 41.4766 23.2027 41.922 23.1532C41.922 23.1532 41.8725 23.1037 41.922 23.1532Z" fill="#DAE1FF"/>
</svg>
